%YAML 1.1
%TAG !u! tag:unity3d.com,2011:
--- !u!78 &1
TagManager:
  serializedVersion: 2
  tags: []
  layers:
  - Default
  - TransparentFX
  - Ignore Raycast
  - 
  - Water
  - UI
  - Ground
  - Player
  - PickUps
  - 
  - 
  - 
  - 
  - 
  - 
  - 
  - 
  - 
  - 
  - 
  - 
  - 
  - 
  - 
  - 
  - 
  - 
  - 
  - 
  - 
  - 
  - 
  m_SortingLayers:
  - name: Default
    uniqueID: 0
    locked: 0
  - name: Background
    uniqueID: 677170179
    locked: 0
  - name: Platforms
    uniqueID: 2901692305
    locked: 0
  - name: PickUps
    uniqueID: 2862431273
    locked: 0
  - name: Enemies
    uniqueID: 927386047
    locked: 0
  - name: Player
    uniqueID: 554560247
    locked: 0
